@startuml

class UserProfile {

void exportUserProfile()
}

UserProfile "1" *-- "1" Progress : contains
UserProfile "1" *-- "1" UserLog : contains
UserProfile "1" *-- "0..1" PersonalInformation : contains
UserProfile "1" *-- "0..1" Account  : contains

class Progress {
    - score : int
    calculateStatistics() : Map<Exercise, Result>
}

Progress "1" *-- "1" ProgressTree

class ProgressTree {
   - children []: ProgressTree
   - parent : ProgressTree
   - score : int
   - errors []: exerciseErrors
   - onFinishExerciseListeners : OnFinishExerciseListeners
   - onInterruptExerciseListeners : OnFinishExerciseListeners
}
class ExerciseTree {
   - children []: ExerciseTree
   - parent : ExerciseTree
}
abstract class Exercise {
   - maxScore : int
   - scoreToProceed : int
   - onFinishExerciseListeners []: OnFinishExerciseListeners
   - onInterruptExerciseListeners []: OnInterruptExerciseListeners
}


ProgressTree "*" --> "1" ExerciseTree

ExerciseTree "1" *-- "1..*" Exercise

Exercise <|-- Quiz
Exercise "1" *-- "*" OnFinishExerciseListeners
Exercise "1" *-- "*" OnInterruptExerciseListeners

interface OnFinishExerciseListeners
interface OnInterruptExerciseListeners


'abstract class AbstractList
'abstract AbstractCollection
'interface List
'interface Collection
'
'List <|-- AbstractList
'Collection <|-- AbstractCollection

'Collection <|- List
'AbstractCollection <|- AbstractList
'AbstractList <|-- ArrayList


'enum TimeUnit {
'DAYS
'HOURS
'MINUTES
'}

@enduml
