[
  {
    "id": 0,
    "name": "Cours 1",
    "description": "Les differentes plantes médicinales",
    "modules": [
      {
        "name": "Dictame",
        "@type": "reading",
        "description": "fiche de cours : Dictame",
        "question": "<h1>Dictame</h1>\n<p>Le dictame est une plante magique qui entre dans la composition de la potion Wiggenweld. L'essence de dictame est &eacute;galement utilis&eacute;e. <br />Il se mange &eacute;galement cru pour cicatriser les plaies peu profondes.</p>\n<p><img src=\"tasks/images/Dictame.png\" alt=\"\" width=\"200\" height=\"200\" /></p>\n<p>&nbsp;</p>",
        "maxScore": 1,
        "answers": [
          {
            "correctVariations": [
              "continue"
            ],
            "score": 1,
            "typingErrorLimit": 0
          }
        ]
      },
      {
        "name": "Bubobulb",
        "@type": "reading",
        "description": "fiche de cours : Bubobulb",
        "question": "<h1>Bubobulb</h1>\n<p>Le Bubobulb est une plante magique qui ressemble &agrave; une grosse limace noire et &eacute;paisse. Elle se tortille l&eacute;g&egrave;rement et est couverte de grosses pustules brillantes. Ces v&eacute;sicules sont remplies de pus vert jaun&acirc;tre qui d&eacute;gage une odeur d'essence. Non dilu&eacute;, le pus de Bubobulb peut avoir des effets bizarres au contact de la peau. Il vaut mieux se munir de gants de protection de peau de dragon pour manipuler la plante. Il est toutefois un excellent rem&egrave;de contre les formes les plus persistantes d'acn&eacute;.&nbsp; Elle est maintenue aux serres de Poudlard.</p>\n<p><img src=\"tasks/images/Bubobulb.jpg\" alt=\"\" width=\"226\" height=\"241\" /></p>",
        "maxScore": 1,
        "answers": [
          {
            "correctVariations": [
              "continue"
            ],
            "score": 1,
            "typingErrorLimit": 0
          }
        ]
      },
      {
        "name": "Figuier\nd'Abyssinie",
        "@type": "reading",
        "description": "fiche de cours : Figuier d'Abyssinie",
        "question": "<h1>Figuier d'Abyssinie</h1>\n<p>&nbsp;</p>\n<p>Le figuier d'Abyssinie perd ses feuilles en hiver et ses fleurs poussent d&egrave;s le printemps, ces fleurs prennent l'apparence de fruits que l'on appelle figues. Ses racines particuli&egrave;rement agressives permettent au figuier d'Abyssinie de s'adapter m&ecirc;me aux environnements les plus inhospitaliers pour lui. Ses feuilles ont &eacute;galement des propri&eacute;t&eacute;s magiques et sont dot&eacute;es de propri&eacute;t&eacute;s m&eacute;dicinales.</p>\n<p><img src=\"tasks/images/Figuier_d'Abyssinie.jpg\" alt=\"\" width=\"231\" height=\"478\" /></p>",
        "maxScore": 1,
        "answers": [
          {
            "correctVariations": [
              "continue"
            ],
            "score": 1,
            "typingErrorLimit": 0
          }
        ]
      },
      {
        "name": "Wiggentree",
        "@type": "reading",
        "description": "fiche de cours : Wiggentree",
        "question": "<h1>Wiggentree</h1>\n<p>Le wiggentree, parfois appel&eacute; sorbier, est un sorbier magique, souvent prot&eacute;g&eacute; par les Botrucs. Si quelqu'un touche son tronc, alors cette personne b&eacute;n&eacute;ficie d'une protection magique contre les cr&eacute;atures malveillantes.</p>\n<p><img src=\"tasks/images/Wiggentree.png\" alt=\"\" width=\"350\" height=\"436\" /></p>",
        "maxScore": 1,
        "answers": [
          {
            "correctVariations": [
              "continue"
            ],
            "score": 1,
            "typingErrorLimit": 0
          }
        ]
      }
    ]
  },
  {
    "id": 1,
    "name": "QCM 1",
    "description": "QCM sur les plantes médicinales",
    "modules": [
      {
        "name": "Dictame",
        "@type": "multiple choice question",
        "description": "qcm :  Dictame",
        "question": "<p>Pour quel usage mange-t-on cru du dictame?</p>\n<p>A : Pour cicatriser les plaies peu profondes.</p>\n<p>B : Pour courir plus vite.</p>\n<p>C : Pour neutraliser un sort d'aveuglement.</p>",
        "maxScore": 5,
        "answers": [
          {
            "correctVariations": [
              "A"
            ],
            "score": 5,
            "typingErrorLimit": 0
          },
          {
            "correctVariations": [
              "B"
            ],
            "score": 0,
            "typingErrorLimit": 0
          },
          {
            "correctVariations": [
              "C"
            ],
            "score": 0,
            "typingErrorLimit": 0
          }
        ]
      },
      {
        "name": "Bubobulb",
        "@type": "multiple choice question",
        "description": "qcm :  Bubobulb",
        "question": "<p>De quel type de gants vaut-il mieux se munir pour manipuler le Bububuld?</p>\n<p>A : Des gants de protection de corne de dragon.</p>\n<p>B : Des gants de protection de peau de dragon.</p>\n<p>C : Des gants de protection de peau de phoenix.</p>",
        "maxScore": 5,
        "answers": [
          {
            "correctVariations": [
              "A"
            ],
            "score": 0,
            "typingErrorLimit": 0
          },
          {
            "correctVariations": [
              "B"
            ],
            "score": 5,
            "typingErrorLimit": 0
          },
          {
            "correctVariations": [
              "C"
            ],
            "score": 0,
            "typingErrorLimit": 0
          }
        ]
      },
      {
        "name": "Figuier\nd'Abyssinie",
        "@type": "multiple choice question",
        "description": "qcm :  Figuier d'Abyssinie",
        "question": "<p>Quelle est la partie du figuier d'Abyssinie qui est dot&eacute;e de propri&eacute;t&eacute;s m&eacute;dicinales?</p>\n<p>A :&nbsp; Ses racines.</p>\n<p>B :&nbsp; Ses fruits.</p>\n<p>C : Ses feuilles.</p>",
        "maxScore": 5,
        "answers": [
          {
            "correctVariations": [
              "A"
            ],
            "score": 0,
            "typingErrorLimit": 0
          },
          {
            "correctVariations": [
              "B"
            ],
            "score": 0,
            "typingErrorLimit": 0
          },
          {
            "correctVariations": [
              "C"
            ],
            "score": 5,
            "typingErrorLimit": 0
          }
        ]
      },
      {
        "name": "Wiggentree",
        "@type": "multiple choice question",
        "description": "qcm :  Wiggentree",
        "question": "<p>Quelle est la protection que procure le touch&eacute; du tronc d&rsquo;un Wiggentree?</p>\n<p>A :&nbsp; Une protection magique contre les cr&eacute;atures malveillantes.</p>\n<p>B : Une protection contre la douleur.</p>\n<p>C :&nbsp; Une protection contre l&rsquo;invisibilit&eacute;.</p>",
        "maxScore": 5,
        "answers": [
          {
            "correctVariations": [
              "A"
            ],
            "score": 5,
            "typingErrorLimit": 0
          },
          {
            "correctVariations": [
              "B"
            ],
            "score": 0,
            "typingErrorLimit": 0
          },
          {
            "correctVariations": [
              "C"
            ],
            "score": 0,
            "typingErrorLimit": 0
          }
        ]
      }
    ]
  },
  {
    "id": 2,
    "name": "Questions 1",
    "description": "Question ouvertes sur les plantes médicinales",
    "modules": [
      {
        "name": "Dictame",
        "@type": "open question",
        "description": "Question ouverte : Dictame",
        "question": "<p>Dans quelle potion le dictame rentre-t-il dans la composition?</p>",
        "maxScore": 5,
        "answers": [
          {
            "correctVariations": [
              "Wiggenweld",
              "potion Wiggenweld"
            ],
            "score": 5,
            "typingErrorLimit": 2
          }
        ]
      },
      {
        "name": "Bubobulb",
        "@type": "open question",
        "description": "Question ouverte : Bubobulb",
        "question": "<p>Contre quel sympt&ocirc;me le Bubobulb est-il un rem&egrave;de ?</p>",
        "maxScore": 5,
        "answers": [
          {
            "correctVariations": [
              "acné"
            ],
            "score": 5,
            "typingErrorLimit": 1
          }
        ]
      },
      {
        "name": "Figuier\nd'Abyssinie",
        "@type": "open question",
        "description": "Question ouverte : Figuier d'Abyssinie",
        "question": "<p>&Agrave; quelle p&eacute;riode de l&rsquo;ann&eacute;e le figuier d&rsquo;Abyssinie perd-il ses feuilles&nbsp;?</p>",
        "maxScore": 5,
        "answers": [
          {
            "correctVariations": [
              "hivers"
            ],
            "score": 5,
            "typingErrorLimit": 1
          }
        ]
      },
      {
        "name": "Wiggentree",
        "@type": "open question",
        "description": "Question ouverte : Wiggentree",
        "question": "<p>Quelles sont les cr&eacute;atures qui prot&egrave;gent souvent le wiggentree ?</p>",
        "maxScore": 5,
        "answers": [
          {
            "correctVariations": [
              "Botrucs"
            ],
            "score": 5,
            "typingErrorLimit": 2
          }
        ]
      }
    ]
  },
  {
    "id": 3,
    "name": "Cours 2",
    "description": "Les differentes plantes utilitaires",
    "modules": [
      {
        "name": "Branchiflore",
        "@type": "reading",
        "description": "fiche de cours : Branchiflore",
        "question": "<h1>Branchiflore</h1>\n<p>&nbsp;</p>\n<p>La Branchiflore est une plante magique permettant de respirer sous l'eau. Elle agit sur l'anatomie, elle dote les mains et les pieds de palmes et des branchies apparaissent sur les c&ocirc;t&eacute;s du cou. Son effet n'est que temporaire.</p>\n<p><img src=\"tasks/images/Branchiflore.png\" alt=\"\" width=\"250\" height=\"370\" /></p>",
        "maxScore": 1,
        "answers": [
          {
            "correctVariations": [
              "continue"
            ],
            "score": 1,
            "typingErrorLimit": 0
          }
        ]
      },
      {
        "name": "Champifleur",
        "@type": "reading",
        "description": "fiche de cours : Champifleur",
        "question": "<h1>Champifleur</h1>\n<p>&nbsp;</p>\n<p>Le Champifleur est une esp&egrave;ce de champignon ayant la particularit&eacute; de faire &eacute;ternuer les trolls. La \"fum&eacute;e\" qui sort de ces derniers quand on les lance &agrave; terre fait &eacute;ternuer ces monstrueuses cr&eacute;atures.</p>\n<p><img src=\"tasks/images/Champifleur.png\" alt=\"\" width=\"350\" height=\"329\" /></p>",
        "maxScore": 1,
        "answers": [
          {
            "correctVariations": [
              "continue"
            ],
            "score": 1,
            "typingErrorLimit": 0
          }
        ]
      },
      {
        "name": "Buisson\nardent",
        "@type": "reading",
        "description": "fiche de cours : Buisson ardent",
        "question": "<h1>Buisson ardent</h1>\n<p>&nbsp;</p>\n<p>Le buisson ardent&nbsp; est une plante magique enflamm&eacute;e qui produit les graines de feu.<br />Des buissons ardents peuvent &ecirc;tre trouv&eacute;s &agrave; Poudlard dans les serres de botanique, dans le jardin de Hagridou dans les grottes des graines de feu.</p>\n<p><img src=\"tasks/images/Buisson ardent.png\" alt=\"\" width=\"350\" height=\"422\" /></p>",
        "maxScore": 1,
        "answers": [
          {
            "correctVariations": [
              "continue"
            ],
            "score": 1,
            "typingErrorLimit": 0
          }
        ]
      },
      {
        "name": "Mimbulus\nMimbletonia",
        "@type": "reading",
        "description": "fiche de cours : Mimbulus Mimbletonia",
        "question": "<h1>Mimbulus Mimbletonia</h1>\n<p>&nbsp;</p>\n<p>Le Mimbulus Mimbletonia est une plante tr&egrave;s rare qui viendrait d'Assyrie. Elle ressemble vulgairement &agrave; un cactus.<br />Elle est utilis&eacute;e pour courir plus vite.</p>\n<p><img src=\"tasks/images/Mimbulus Mimbletonia.png\" alt=\"\" width=\"350\" height=\"467\" /></p>",
        "maxScore": 1,
        "answers": [
          {
            "correctVariations": [
              "continue"
            ],
            "score": 1,
            "typingErrorLimit": 0
          }
        ]
      }
    ]
  },
  {
    "id": 4,
    "name": "QCM 2",
    "description": "QCM sur les les plantes utilitaires",
    "modules": [
      {
        "name": "Branchiflore",
        "@type": "multiple choice question",
        "description": "qcm : Branchiflore",
        "question": "<p>Que permet de faire la Branchiflore?</p>\n<p>A : Courir plus vite.</p>\n<p>B : Respirer sous l&rsquo;eau.</p>\n<p>C : Changer d&rsquo;apparence.</p>",
        "maxScore": 5,
        "answers": [
          {
            "correctVariations": [
              "A"
            ],
            "score": 0,
            "typingErrorLimit": 0
          },
          {
            "correctVariations": [
              "B"
            ],
            "score": 0,
            "typingErrorLimit": 0,
            "hint": "Pensez à l'exploration sous-marine"
          },
          {
            "correctVariations": [
              "C"
            ],
            "score": 5,
            "typingErrorLimit": 0
          }
        ]
      },
      {
        "name": "Champifleur",
        "@type": "multiple choice question",
        "description": "qcm :  Champifleur",
        "question": "<p>Quelle est la particularit&eacute; du champifleur?<br /><br />A : Il pousse sous l&rsquo;eau.</p>\n<p>B : Il ressemble &agrave; une fleur.</p>\n<p>C : Il fait &eacute;ternuer les trolls.</p>",
        "maxScore": 5,
        "answers": [
          {
            "correctVariations": [
              "A"
            ],
            "score": 0,
            "typingErrorLimit": 0
          },
          {
            "correctVariations": [
              "B"
            ],
            "score": 0,
            "typingErrorLimit": 0
          },
          {
            "correctVariations": [
              "C"
            ],
            "score": 5,
            "typingErrorLimit": 0
          }
        ]
      },
      {
        "name": "Buisson\nardent",
        "@type": "multiple choice question",
        "description": "qcm :  Buisson ardent",
        "question": "<p>Que produit le buisson ardent?<br /><br />A : Des graines de feu.</p>\n<p>B : De la fum&eacute;e.</p>\n<p>C : Du vent.</p>",
        "maxScore": 5,
        "answers": [
          {
            "correctVariations": [
              "A"
            ],
            "score": 5,
            "typingErrorLimit": 0
          },
          {
            "correctVariations": [
              "B"
            ],
            "score": 0,
            "typingErrorLimit": 0
          },
          {
            "correctVariations": [
              "C"
            ],
            "score": 0,
            "typingErrorLimit": 0
          }
        ]
      },
      {
        "name": "Mimbulus\nMimbletonia",
        "@type": "multiple choice question",
        "description": "qcm :  Mimbulus Mimbletonia",
        "question": "<p>&Agrave; quoi sert le Mimbulus Mimbletonia?<br /><br />A : &Agrave; courir plus vite.</p>\n<p>B : &Agrave; moins manger.</p>\n<p>C : &Agrave; m&eacute;moriser plus facilement.</p>",
        "maxScore": 5,
        "answers": [
          {
            "correctVariations": [
              "A"
            ],
            "score": 5,
            "typingErrorLimit": 0
          },
          {
            "correctVariations": [
              "B"
            ],
            "score": 0,
            "typingErrorLimit": 0
          },
          {
            "correctVariations": [
              "C"
            ],
            "score": 0,
            "typingErrorLimit": 0
          }
        ]
      }
    ]
  },
  {
    "id": 5,
    "name": "Questions 2",
    "description": "Les questions ouvertes pour les plantes utilitaires",
    "modules": [
      {
        "name": "Branchiflore",
        "@type": "open question",
        "description": "Question ouverte : Branchiflore",
        "question": "<p>Que fait appara&icirc;tre la branchifl</p>",
        "maxScore": 5,
        "answers": [
          {
            "correctVariations": [
              "palmes",
              "palme"
            ],
            "score": 5,
            "typingErrorLimit": 1
          },
          {
            "correctVariations": [
              "branchies",
              "branchie"
            ],
            "score": 3,
            "hint": "C'est juste mais ce n'est pas le plus important.\nQue met-on aux pieds pour nager plus vite?",
            "typingErrorLimit": 1
          },
          {
            "correctVariations": [
              "branche"
            ],
            "score": -2,
            "hint": "On cherche une partie du corps. C'est quelque-chose qui permet de nager longtemps.",
            "typingErrorLimit": 0
          }
        ]
      },
      {
        "name": "Champifleur",
        "@type": "open question",
        "description": "Question ouverte :Champifleur",
        "question": "<p><span style=\"font-size: large;\"><span style=\"font-size: medium;\"><span style=\"font-weight: normal;\">Que sort du Champifleur lorsqu&rsquo;on le lance &agrave; terre?</span></span></span></p>",
        "maxScore": 5,
        "answers": [
          {
            "correctVariations": [
              " fumée"
            ],
            "score": 5,
            "typingErrorLimit": 2
          }
        ]
      },
      {
        "name": "Buisson\nardent",
        "@type": "open question",
        "description": "Question ouverte : Buisson ardent",
        "question": "<p>Ou peut-on trouver du buisson ardent ?</p>",
        "maxScore": 5,
        "answers": [
          {
            "correctVariations": [
              "Poudlard"
            ],
            "score": 3,
            "typingErrorLimit": 1
          },
          {
            "correctVariations": [
              "Hagridou"
            ],
            "score": 5,
            "typingErrorLimit": 1
          }
        ]
      },
      {
        "name": "Mimbulus\nMimbletonia",
        "@type": "open question",
        "description": "Question ouverte : Mimbulus Mimbletonia",
        "question": "<p><span style=\"font-size: large;\">D&rsquo;o&ugrave; provient le Mimbulus Mimbletonia?</span></p>",
        "maxScore": 5,
        "answers": [
          {
            "correctVariations": [
              "Assyrie"
            ],
            "score": 5,
            "typingErrorLimit": 2
          }
        ]
      }
    ]
  },
  {
    "id": 6,
    "name": "Cours 3",
    "description": "Les differentes plantes dangeureuses",
    "modules": [
      {
        "name": "Mandragore",
        "@type": "reading",
        "description": "fiche de cours : Mandragore",
        "question": "<h1>Mandragore</h1>\n<p>&nbsp;</p>\n<p>La mandragore&nbsp; est une plante qui ressemble &agrave; un b&eacute;b&eacute; que l'on enterre dans un pot. <br />L'hiver, il faut lui mettre des chaussettes. La mandragore est le mets pr&eacute;f&eacute;r&eacute; des Fangieux. Le philtre de mandragore est utilis&eacute; pour annuler les sortil&egrave;ges et enchantements sur une ou plusieurs personnes. La mandragore est tr&egrave;s dangereuse, car son cri, lorsqu'on la d&eacute;racine, peut tuer lorsqu'elle est adulte, ou faire s'&eacute;vanouir - lorsqu'elle est encore b&eacute;b&eacute; - ceux qui l'entendent. <img src=\"tasks/images/Mandragore2.png\" alt=\"\" width=\"332\" height=\"500\" /></p>",
        "maxScore": 1,
        "answers": [
          {
            "correctVariations": [
              "continue"
            ],
            "score": 1,
            "typingErrorLimit": 0
          }
        ]
      },
      {
        "name": "Filet\ndu Diable",
        "@type": "reading",
        "description": "fiche de cours : Filet du Diable",
        "question": "<h1>Filet du Diable</h1>\n<p>&nbsp;</p>\n<p>Le Filet du Diable&nbsp; est une plante magique qui adore l'obscurit&eacute; et l'humidit&eacute;, mais d&eacute;teste la lumi&egrave;re. Elle poss&egrave;de la capacit&eacute; d'immobiliser ou d'&eacute;trangler n'importe quel &ecirc;tre vivant pr&eacute;sent dans son environnement gr&acirc;ce &agrave; ses longues branches qui lui donnent cet aspect de \"pieuvre v&eacute;g&eacute;tale\". Plus la victime r&eacute;siste, plus la plante exerce une force de constriction.</p>\n<p><img src=\"tasks/images/Filet du Diable1.png\" alt=\"\" width=\"250\" height=\"149\" /></p>",
        "maxScore": 1,
        "answers": [
          {
            "correctVariations": [
              "continue"
            ],
            "score": 1,
            "typingErrorLimit": 0
          }
        ]
      },
      {
        "name": "Tentacula\nvénéneuse",
        "@type": "reading",
        "description": "fiche de cours : Tentacula vénéneuse",
        "question": "<h1>Tentacula v&eacute;n&eacute;neuse</h1>\n<p>&nbsp;</p>\n<p>La Tentacula v&eacute;n&eacute;neuse est une plante magique qui a de longs tentacules et des dents. Derwent Shimpling a, &agrave; l'occasion d'un pari, mang&eacute; une Tentacula v&eacute;n&eacute;neuse enti&egrave;re et a surv&eacute;cu. Les graines de Tentacula v&eacute;n&eacute;neuse appartiennent &agrave; la classe C des substances interdites &agrave; la vente. Elles ont un aspect de petites graines noires et dess&eacute;ch&eacute;es et elles produisent un cr&eacute;pitement.</p>\n<p><img src=\"tasks/images/Tentacula veneneneuse_2.png\" alt=\"\" width=\"251\" height=\"281\" /></p>",
        "maxScore": 1,
        "answers": [
          {
            "correctVariations": [
              "continue"
            ],
            "score": 1,
            "typingErrorLimit": 0
          }
        ]
      },
      {
        "name": "Saule\ncogneur",
        "@type": "reading",
        "description": "fiche de cours : Saule cogneur",
        "question": "<h1>Saule cogneur</h1>\n<p>&nbsp;</p>\n<p>Le Saule cogneur est un arbre magique. Ce saule, tr&egrave;s capricieux, a tendance &agrave; frapper avec ses longues branches les &ecirc;tres vivants, humains ou cr&eacute;atures, s'approchant trop pr&egrave;s de lui. Bien qu'il soit violent, il agit en fait comme un gardien. En effet, ses racines cachent un passage secret menant &agrave; la Cabane hurlante. Il existe deux moyens pour stopper l'arbre momentan&eacute;ment et emprunter le passage secret. Il est possible de le paralyser soit en appuyant sur un n&oelig;ud &agrave; la base du tronc, soit en utilisant le sortil&egrave;ge Immobulus.</p>\n<p><img src=\"tasks/images/saule_cogneur (Case Conflict).jpg\" alt=\"\" width=\"133\" height=\"100\" /></p>",
        "maxScore": 1,
        "answers": [
          {
            "correctVariations": [
              "continue"
            ],
            "score": 1,
            "typingErrorLimit": 0
          }
        ]
      }
    ]
  },
  {
    "id": 7,
    "name": "QCM 3",
    "description": "QCM sur les les plantes dangeureuses",
    "modules": [
      {
        "name": "Mandragore",
        "@type": "multiple choice question",
        "description": "qcm :  Mandragore",
        "question": "<p>&Agrave; quoi ressemble la mandragore?</p>\n<p>A : Un b&eacute;b&eacute;.</p>\n<p>B : Une pierre.</p>\n<p>C : Un troll.</p>",
        "maxScore": 5,
        "answers": [
          {
            "correctVariations": [
              "A"
            ],
            "score": 5,
            "typingErrorLimit": 0
          },
          {
            "correctVariations": [
              "B"
            ],
            "score": 0,
            "typingErrorLimit": 0
          },
          {
            "correctVariations": [
              "C"
            ],
            "score": 0,
            "typingErrorLimit": 0
          }
        ]
      },
      {
        "name": "Filet\ndu Diable",
        "@type": "multiple choice question",
        "description": "qcm :  Filet du Diable",
        "question": "<p>Quelle est la capacit&eacute; du filet du diable&nbsp;?<br /><br />A : La capacit&eacute; &agrave; rendre invisible.<br /><br />B : La capacit&eacute; d'immobiliser ou d'&eacute;trangler n'importe quel &ecirc;tre vivant pr&eacute;sent dans son environnement.<br /><br />C : La capacit&eacute; &agrave; endormir les &ecirc;tres vivants pr&eacute;sents dans son environnement.</p>",
        "maxScore": 5,
        "answers": [
          {
            "correctVariations": [
              "A"
            ],
            "score": 0,
            "typingErrorLimit": 0
          },
          {
            "correctVariations": [
              "B"
            ],
            "score": 5,
            "typingErrorLimit": 0
          },
          {
            "correctVariations": [
              "C"
            ],
            "score": 0,
            "typingErrorLimit": 0
          }
        ]
      },
      {
        "name": "Tentacula\nvénéneuse",
        "@type": "multiple choice question",
        "description": "qcm : Tentacula vénéneuse",
        "question": "<p>Que poss&egrave;de la tentacula v&eacute;n&eacute;neuse?<br /><br />A : Des bras et des mains,<br /><br />B : Des cheveux,<br /><br />C : De longs tentacules et des dents.</p>",
        "maxScore": 5,
        "answers": [
          {
            "correctVariations": [
              "A"
            ],
            "score": 0,
            "typingErrorLimit": 0
          },
          {
            "correctVariations": [
              "B"
            ],
            "score": 0,
            "typingErrorLimit": 0
          },
          {
            "correctVariations": [
              "C"
            ],
            "score": 5,
            "typingErrorLimit": 0
          }
        ]
      },
      {
        "name": "Saule\ncogneur",
        "@type": "multiple choice question",
        "description": "qcm : Saule cogneu",
        "question": "<p>Que fait le saule cogneur aux &ecirc;tres qui s&rsquo;approche de lui&nbsp;?<br /><br />A : Il les frappe avec ses longues branches.<br /><br />B : Il les cogne avec ses pieds.<br /><br />C : Il leurs chante une berceuse.</p>",
        "maxScore": 5,
        "answers": [
          {
            "correctVariations": [
              "A"
            ],
            "score": 5,
            "typingErrorLimit": 0
          },
          {
            "correctVariations": [
              "B"
            ],
            "score": 0,
            "typingErrorLimit": 0
          },
          {
            "correctVariations": [
              "C"
            ],
            "score": 0,
            "typingErrorLimit": 0
          }
        ]
      }
    ]
  },
  {
    "id": 8,
    "name": "Questions 3",
    "description": "Question ouvertes sur  les plantes dangeureuses",
    "modules": [
      {
        "name": "Mandragore",
        "@type": "open question",
        "description": "Question ouverte : Mandragore",
        "question": "<p>Qu&rsquo;est ce qui est dangereux avec la mandragore?</p>",
        "maxScore": 5,
        "answers": [
          {
            "correctVariations": [
              "cri"
            ],
            "score": 5,
            "typingErrorLimit": 1
          }
        ]
      },
      {
        "name": "Filet\ndu Diable",
        "@type": "open question",
        "description": "Question ouverte : Filet du Diable",
        "question": "<p>Qu&rsquo;adore le filet du diable?</p>",
        "maxScore": 5,
        "answers": [
          {
            "correctVariations": [
              "obscurité"
            ],
            "score": 5,
            "typingErrorLimit": 1
          },
          {
            "correctVariations": [
              "humidité"
            ],
            "score": 5,
            "typingErrorLimit": 1
          }
        ]
      },
      {
        "name": "Tentacula\nvénéneuse",
        "@type": "open question",
        "description": "Question ouverte : Tentacula vénéneuse",
        "question": "<p>Que produisent les graines de la tentacula v&eacute;n&eacute;neuse?</p>",
        "maxScore": 5,
        "answers": [
          {
            "correctVariations": [
              "crépitement"
            ],
            "score": 5,
            "typingErrorLimit": 2
          }
        ]
      },
      {
        "name": "Saule\ncogneur",
        "@type": "open question",
        "description": "Question ouverte :Saule cogneur",
        "question": "<p>Quel sortil&egrave;ge faut-il utiliser pour arr&ecirc;ter un saule cogneur?</p>",
        "maxScore": 5,
        "answers": [
          {
            "correctVariations": [
              "immobulus"
            ],
            "score": 5,
            "typingErrorLimit": 2
          }
        ]
      }
    ]
  }
]
